Assign6- Branch Instructions/cpu_tb.vcd
$date
	Tue Nov 17 22:36:54 2020
$end
$version
	Icarus Verilog
$end
$timescale
	1ps
$end
$scope module cpu_tb $end
$var wire 32 ! idata [31:0] $end
$var wire 32 " iaddr [31:0] $end
$var wire 4 # dwe2 [3:0] $end
$var wire 4 $ dwe1 [3:0] $end
$var wire 4 % dwe [3:0] $end
$var wire 32 & dwdata2 [31:0] $end
$var wire 32 ' dwdata1 [31:0] $end
$var wire 32 ( dwdata [31:0] $end
$var wire 32 ) drdata2 [31:0] $end
$var wire 32 * drdata1 [31:0] $end
$var wire 32 + drdata [31:0] $end
$var wire 32 , daddr2 [31:0] $end
$var wire 32 - daddr1 [31:0] $end
$var wire 32 . daddr [31:0] $end
$var reg 1 / clk $end
$var reg 1 0 reset $end
$var integer 32 1 i [31:0] $end
$scope module u1 $end
$var wire 1 / clk $end
$var wire 1 0 reset $end
$var wire 1 2 zero $end
$var wire 1 3 regwrite $end
$var wire 2 4 regin [1:0] $end
$var wire 4 5 op [3:0] $end
$var wire 4 6 memwrite [3:0] $end
$var wire 1 7 memtoreg $end
$var wire 32 8 memdata [31:0] $end
$var wire 32 9 in2 [31:0] $end
$var wire 32 : in1 [31:0] $end
$var wire 32 ; immgen [31:0] $end
$var wire 3 < imm [2:0] $end
$var wire 32 = idata [31:0] $end
$var wire 32 > drdata [31:0] $end
$var wire 32 ? data2 [31:0] $end
$var wire 32 @ data1 [31:0] $end
$var wire 3 A branch [2:0] $end
$var wire 2 B alusrc [1:0] $end
$var wire 32 C aluout [31:0] $end
$var wire 2 D aluop [1:0] $end
$var wire 32 E PC_next [31:0] $end
$var wire 32 F PC_4 [31:0] $end
$var wire 16 G LHdata [15:0] $end
$var wire 8 H LBdata [7:0] $end
$var reg 32 I daddr [31:0] $end
$var reg 32 J dwdata [31:0] $end
$var reg 4 K dwe [3:0] $end
$var reg 32 L iaddr [31:0] $end
$var reg 32 M mem_to_regdata [31:0] $end
$var reg 32 N regindata [31:0] $end
$scope module ALU $end
$var wire 32 O in1 [31:0] $end
$var wire 32 P in2 [31:0] $end
$var wire 1 2 zero $end
$var wire 4 Q op [3:0] $end
$var reg 32 R out [31:0] $end
$upscope $end
$scope module ALUCTRL $end
$var wire 3 S funct3 [2:0] $end
$var wire 32 T instr [31:0] $end
$var wire 2 U aluop [1:0] $end
$var reg 4 V op [3:0] $end
$upscope $end
$scope module CTRL $end
$var wire 1 3 regwrite $end
$var wire 7 W opcode [6:0] $end
$var wire 1 7 memtoreg $end
$var wire 32 X idata [31:0] $end
$var wire 3 Y funct3 [2:0] $end
$var wire 2 Z alusrc [1:0] $end
$var wire 2 [ aluop [1:0] $end
$var reg 3 \ branch [2:0] $end
$var reg 3 ] imm [2:0] $end
$var reg 4 ^ memwrite [3:0] $end
$var reg 2 _ regin [1:0] $end
$upscope $end
$scope module IMMGEN $end
$var wire 3 ` imm [2:0] $end
$var wire 32 a idata [31:0] $end
$var reg 32 b immgen [31:0] $end
$upscope $end
$scope module Prog_Counter $end
$var wire 32 c PC [31:0] $end
$var wire 32 d aluout [31:0] $end
$var wire 3 e branch [2:0] $end
$var wire 32 f immgen [31:0] $end
$var wire 1 2 zero $end
$var wire 32 g PC_branch [31:0] $end
$var wire 32 h PC_4 [31:0] $end
$var reg 32 i PC_next [31:0] $end
$upscope $end
$scope module RF $end
$var wire 1 / clk $end
$var wire 32 j indata [31:0] $end
$var wire 5 k rd [4:0] $end
$var wire 1 0 reset $end
$var wire 5 l rs1 [4:0] $end
$var wire 5 m rs2 [4:0] $end
$var wire 1 3 we $end
$var reg 32 n rv1 [31:0] $end
$var reg 32 o rv2 [31:0] $end
$var integer 32 p i [31:0] $end
$upscope $end
$upscope $end
$scope module u2 $end
$var wire 32 q iaddr [31:0] $end
$var wire 32 r idata [31:0] $end
$upscope $end
$scope module u3 $end
$var wire 1 / clk $end
$var wire 4 s dwe [3:0] $end
$var wire 32 t dwdata [31:0] $end
$var wire 32 u drdata [31:0] $end
$var wire 32 v daddr [31:0] $end
$var wire 30 w a [29:0] $end
$var integer 32 x i [31:0] $end
$upscope $end
$scope module u4 $end
$var wire 1 / clk $end
$var wire 1 0 reset $end
$var wire 4 y dwe [3:0] $end
$var wire 32 z dwdata [31:0] $end
$var wire 32 { daddr [31:0] $end
$var reg 32 | counter [31:0] $end
$var reg 32 } drdata [31:0] $end
$var integer 32 ~ fh [31:0] $end
$upscope $end
$scope module u5 $end
$var wire 1 / clk $end
$var wire 32 !" daddr [31:0] $end
$var wire 32 "" drdata1 [31:0] $end
$var wire 32 #" drdata2 [31:0] $end
$var wire 32 $" dwdata [31:0] $end
$var wire 4 %" dwe [3:0] $end
$var wire 1 0 reset $end
$var wire 32 &" drdata [31:0] $end
$var reg 32 '" daddr1 [31:0] $end
$var reg 32 (" daddr2 [31:0] $end
$var reg 32 )" dwdata1 [31:0] $end
$var reg 32 *" dwdata2 [31:0] $end
$var reg 4 +" dwe1 [3:0] $end
$var reg 4 ," dwe2 [3:0] $end
$upscope $end
$upscope $end
$enddefinitions $end
#0
$dumpvars
b0 ,"
bx +"
b0 *"
bx )"
b10000000000000 ("
bx '"
bx &"
b0 %"
b0 $"
bx #"
bx ""
b10000000000000 !"
bx ~
bx }
bx |
b10000000000000 {
b0 z
b0 y
b100101000100 x
bx w
bx v
bx u
bx t
bx s
b10000110010111 r
b0 q
b100000 p
b0 o
b0 n
b0 m
b0 l
b11 k
b10000000000000 j
b100 i
b100 h
b10000000000000 g
b10000000000000 f
b0 e
b10000000000000 d
b0 c
b10000000000000 b
b10000110010111 a
b1 `
b0 _
b0 ^
b1 ]
b0 \
b0 [
b11 Z
b10 Y
b10000110010111 X
b10111 W
b0 V
b0 U
b10000110010111 T
b10 S
b10000000000000 R
b0 Q
b10000000000000 P
b0 O
b10000000000000 N
b10000000000000 M
b0 L
b0 K
b0 J
b10000000000000 I
b0 H
b10000000000000 G
b100 F
b100 E
b0 D
b10000000000000 C
b11 B
b0 A
b0 @
b0 ?
bx >
b10000110010111 =
b1 <
b10000000000000 ;
b0 :
b10000000000000 9
b10000000000000 8
07
b0 6
b0 5
b0 4
13
02
bx 1
10
1/
b10000000000000 .
bx -
b10000000000000 ,
bx +
bx *
bx )
b0 (
bx '
b0 &
b0 %
bx $
b0 #
b0 "
b10000110010111 !
$end
#5000
0/
#10000
b0 ,
b0 {
b0 ("
b0 .
b0 I
b0 !"
1/
#15000
0/
#20000
1/
#25000
0/
#30000
1/
#35000
0/
#40000
1/
#45000
0/
#50000
1/
#55000
0/
#60000
1/
#65000
0/
#70000
1/
#75000
0/
#80000
1/
#85000
0/
#90000
1/
#95000
0/
#100000
b1101110011000 ,
b1101110011000 {
b1101110011000 ("
b1101110011000 G
b10011000 H
b1101110011000 N
b1101110011000 j
b1101110011000 M
b1101110011000 8
b1101110011000 .
b1101110011000 I
b1101110011000 !"
b1101110011000 C
b1101110011000 R
b1101110011000 d
13
b10 D
b10 U
b10 [
b0 <
b0 ]
b0 `
b10000000000000 @
b10000000000000 n
b11111111111111111111101110011000 9
b11111111111111111111101110011000 P
b0 Y
b10 B
b10 Z
b10011 W
b0 S
b11000 m
b11 l
b11111111111111111111101110011000 ;
b11111111111111111111101110011000 b
b11111111111111111111101110011000 f
b10000000000000 :
b10000000000000 O
b1000 E
b1000 i
b10111001100000011000000110010011 !
b10111001100000011000000110010011 =
b10111001100000011000000110010011 T
b10111001100000011000000110010011 X
b10111001100000011000000110010011 a
b10111001100000011000000110010011 r
b1000 F
b1000 h
b11111111111111111111101110011100 g
b100 "
b100 L
b100 c
b100 q
b0 1
1/
00
#105000
0/
#110000
b1000000001000 ,
b1000000001000 {
b1000000001000 ("
b1000000001000 G
b1000 H
b1000000001000 N
b1000000001000 j
b1000000001000 M
b1000000001000 8
b1000000001000 .
b1000000001000 I
b1000000001000 !"
b1000000001000 C
b1000000001000 R
b1000000001000 d
b0 D
b0 U
b0 [
b1 <
b1 ]
b1 `
b0 5
b0 Q
b0 V
b1000000000000 9
b1000000000000 P
b1 Y
b11 B
b11 Z
b10111 W
b1 S
b10 k
b0 m
b0 l
b1000000000000 ;
b1000000000000 b
b1000000000000 f
b1000 :
b1000 O
b1100 E
b1100 i
b1000100010111 !
b1000100010111 =
b1000100010111 T
b1000100010111 X
b1000100010111 a
b1000100010111 r
b0 @
b0 n
b1100 F
b1100 h
b1000000001000 g
b1000 "
b1000 L
b1000 c
b1000 q
b1 1
1/
#115000
0/
#120000
b1000000000000 ,
b1000000000000 {
b1000000000000 ("
b1000000000000 G
b0 H
b1000000000000 N
b1000000000000 j
b1000000000000 M
b1000000000000 8
b1000000000000 .
b1000000000000 I
b1000000000000 !"
b1000000000000 C
b1000000000000 R
b1000000000000 d
13
b10 D
b10 U
b10 [
b0 <
b0 ]
b0 `
b1000000001000 @
b1000000001000 n
b11111111111111111111111111111000 9
b11111111111111111111111111111000 P
b0 Y
b10 B
b10 Z
b10011 W
b0 S
b11000 m
b10 l
b11111111111111111111111111111000 ;
b11111111111111111111111111111000 b
b11111111111111111111111111111000 f
b1000000001000 :
b1000000001000 O
b10000 E
b10000 i
b11111111100000010000000100010011 !
b11111111100000010000000100010011 =
b11111111100000010000000100010011 T
b11111111100000010000000100010011 X
b11111111100000010000000100010011 a
b11111111100000010000000100010011 r
b10000 F
b10000 h
b100 g
b1100 "
b1100 L
b1100 c
b1100 q
b10 1
1/
#125000
0/
#130000
b1000000000000 C
b1000000000000 R
b1000000000000 d
13
b0 B
b0 Z
b0 9
b0 P
b110011 W
b1000 k
b0 m
b0 ;
b0 b
b0 f
b1000000000000 :
b1000000000000 O
b10100 E
b10100 i
b10000010000110011 !
b10000010000110011 =
b10000010000110011 T
b10000010000110011 X
b10000010000110011 a
b10000010000110011 r
b1000000000000 @
b1000000000000 n
b10100 F
b10100 h
b10000 g
b10000 "
b10000 L
b10000 c
b10000 q
b11 1
1/
#135000
0/
#140000
b0 ,
b0 {
b0 ("
b0 G
b0 M
b0 8
b0 .
b0 I
b0 !"
12
b0 C
b0 R
b0 d
b11000 N
b11000 j
b0 :
b0 O
b0 D
b0 U
b0 [
b10 4
b10 _
b11 <
b11 ]
b11 `
b11 A
b11 \
b11 e
b0 @
b0 n
b1101111 W
b0 k
b0 l
b1100000000 ;
b1100000000 b
b1100000000 f
b1100010100 E
b1100010100 i
b110000000000000000000001101111 !
b110000000000000000000001101111 =
b110000000000000000000001101111 T
b110000000000000000000001101111 X
b110000000000000000000001101111 a
b110000000000000000000001101111 r
b11000 F
b11000 h
b1100010100 g
b10100 "
b10100 L
b10100 c
b10100 q
b100 1
1/
#145000
0/
#150000
b111111110000 ,
b111111110000 {
b111111110000 ("
b111111110000 G
b11110000 H
b111111110000 M
b111111110000 8
b111111110000 .
b111111110000 I
b111111110000 !"
02
b111111110000 C
b111111110000 R
b111111110000 d
b11111111111111111111111111110000 9
b11111111111111111111111111110000 P
13
b10 B
b10 Z
b1000000000000 :
b1000000000000 O
b10 D
b10 U
b10 [
b0 <
b0 ]
b0 `
b0 4
b0 _
b0 A
b0 \
b0 e
b1000000000000 @
b1000000000000 n
b10011 W
b10 k
b10000 m
b10 l
b11111111111111111111111111110000 ;
b11111111111111111111111111110000 b
b11111111111111111111111111110000 f
b111111110000 N
b111111110000 j
b1100011000 E
b1100011000 i
b11111111000000010000000100010011 !
b11111111000000010000000100010011 =
b11111111000000010000000100010011 T
b11111111000000010000000100010011 X
b11111111000000010000000100010011 a
b11111111000000010000000100010011 r
b1100011000 F
b1100011000 h
b1100000100 g
b1100010100 "
b1100010100 L
b1100010100 c
b1100010100 q
b101 1
1/
#155000
0/
#160000
b111111111100 ,
b111111111100 {
b111111111100 ("
b111111111100 G
b11111100 H
b111111111100 N
b111111111100 j
b111111111100 M
b111111111100 8
b111111111100 .
b111111111100 I
b111111111100 !"
b1111 #
b1111 y
b1111 ,"
02
b111111111100 C
b111111111100 R
b111111111100 d
03
b10 B
b10 Z
b1111 %
b1111 K
b1111 %"
b0 D
b0 U
b0 [
b10 <
b10 ]
b10 `
b1111 6
b1111 ^
b0 5
b0 Q
b0 V
b1100 9
b1100 P
b111111110000 :
b111111110000 O
b10 Y
b100011 W
b10 S
b1100 k
b1 m
b1100 ;
b1100 b
b1100 f
b111111110000 @
b111111110000 n
b1100011100 E
b1100011100 i
b100010010011000100011 !
b100010010011000100011 =
b100010010011000100011 T
b100010010011000100011 X
b100010010011000100011 a
b100010010011000100011 r
b1100011100 F
b1100011100 h
b1100100100 g
b1100011000 "
b1100011000 L
b1100011000 c
b1100011000 q
b110 1
1/
#165000
0/
#170000
b111111111000 ,
b111111111000 {
b111111111000 ("
b111111111000 G
b11111000 H
b111111111000 N
b111111111000 j
b111111111000 M
b111111111000 8
b111111111000 .
b111111111000 I
b111111111000 !"
b1000000000000 &
b1000000000000 z
b1000000000000 *"
b111111111000 C
b111111111000 R
b111111111000 d
b1000000000000 (
b1000000000000 J
b1000000000000 $"
b1000000000000 ?
b1000000000000 o
b1000 9
b1000 P
b1000 k
b1000 m
b1000 ;
b1000 b
b1000 f
b1100100000 E
b1100100000 i
b100000010010010000100011 !
b100000010010010000100011 =
b100000010010010000100011 T
b100000010010010000100011 X
b100000010010010000100011 a
b100000010010010000100011 r
b1100100000 F
b1100100000 h
b1100100100 g
b1100011100 "
b1100011100 L
b1100011100 c
b1100011100 q
b111 1
1/
#175000
0/
#180000
b1000000000000 ,
b1000000000000 {
b1000000000000 ("
b1000000000000 G
b0 H
b1000000000000 N
b1000000000000 j
b1000000000000 M
b1000000000000 8
b1000000000000 .
b1000000000000 I
b1000000000000 !"
b1000000000000 C
b1000000000000 R
b1000000000000 d
b0 #
b0 y
b0 ,"
b0 &
b0 z
b0 *"
13
b10000 9
b10000 P
b10000 ;
b10000 b
b10000 f
b0 %
b0 K
b0 %"
b0 (
b0 J
b0 $"
b10 D
b10 U
b10 [
b0 <
b0 ]
b0 `
b0 6
b0 ^
b0 ?
b0 o
b0 Y
b10011 W
b0 S
b10000 m
b1100100100 E
b1100100100 i
b1000000010000010000010011 !
b1000000010000010000010011 =
b1000000010000010000010011 T
b1000000010000010000010011 X
b1000000010000010000010011 a
b1000000010000010000010011 r
b1100100100 F
b1100100100 h
b1100110000 g
b1100100000 "
b1100100000 L
b1100100000 c
b1100100000 q
b1000 1
1/
#185000
0/
#190000
b110 ,
b110 {
b110 ("
b0 G
b110 N
b110 j
b110 M
b110 8
b110 .
b110 I
b110 !"
b110 C
b110 R
b110 d
b0 :
b0 O
b0 @
b0 n
b110 9
b110 P
b1010 k
b110 m
b0 l
b110 ;
b110 b
b110 f
b1100101000 E
b1100101000 i
b11000000000010100010011 !
b11000000000010100010011 =
b11000000000010100010011 T
b11000000000010100010011 X
b11000000000010100010011 a
b11000000000010100010011 r
b1100101000 F
b1100101000 h
b1100101010 g
b1100100100 "
b1100100100 L
b1100100100 c
b1100100100 q
b1001 1
1/
#195000
0/
#200000
b0 ,
b0 {
b0 ("
b0 M
b0 8
b0 .
b0 I
b0 !"
12
b0 C
b0 R
b0 d
b0 B
b0 Z
b1100101100 N
b1100101100 j
b0 D
b0 U
b0 [
b10 4
b10 _
b11 <
b11 ]
b11 `
b11 A
b11 \
b11 e
b0 9
b0 P
b111 Y
b1101111 W
b111 S
b1 k
b11101 m
b11111 l
b0 5
b0 Q
b0 V
b11111111111111111111111101111100 ;
b11111111111111111111111101111100 b
b11111111111111111111111101111100 f
b1010100100 E
b1010100100 i
b11110111110111111111000011101111 !
b11110111110111111111000011101111 =
b11110111110111111111000011101111 T
b11110111110111111111000011101111 X
b11110111110111111111000011101111 a
b11110111110111111111000011101111 r
b1100101100 F
b1100101100 h
b1010100100 g
b1100101000 "
b1100101000 L
b1100101000 c
b1100101000 q
b1010 1
1/
#205000
0/
#210000
b111111010000 ,
b111111010000 {
b111111010000 ("
b111111010000 G
b11010000 H
b111111010000 M
b111111010000 8
b111111010000 .
b111111010000 I
b111111010000 !"
02
b111111010000 C
b111111010000 R
b111111010000 d
b11111111111111111111111111100000 9
b11111111111111111111111111100000 P
13
b10 B
b10 Z
b111111110000 :
b111111110000 O
b10 D
b10 U
b10 [
b0 <
b0 ]
b0 `
b0 4
b0 _
b0 A
b0 \
b0 e
b111111110000 @
b111111110000 n
b0 Y
b10011 W
b0 S
b10 k
b0 m
b10 l
b11111111111111111111111111100000 ;
b11111111111111111111111111100000 b
b11111111111111111111111111100000 f
b111111010000 N
b111111010000 j
b1010101000 E
b1010101000 i
b11111110000000010000000100010011 !
b11111110000000010000000100010011 =
b11111110000000010000000100010011 T
b11111110000000010000000100010011 X
b11111110000000010000000100010011 a
b11111110000000010000000100010011 r
b1010101000 F
b1010101000 h
b1010000100 g
b1010100100 "
b1010100100 L
b1010100100 c
b1010100100 q
b1011 1
1/
#215000
0/
#220000
b111111101100 ,
b111111101100 {
b111111101100 ("
b111111101100 G
b11101100 H
b111111101100 N
b111111101100 j
b111111101100 M
b111111101100 8
b111111101100 .
b111111101100 I
b111111101100 !"
b1111 #
b1111 y
b1111 ,"
b1100101100 &
b1100101100 z
b1100101100 *"
02
b111111101100 C
b111111101100 R
b111111101100 d
03
b10 B
b10 Z
b1111 %
b1111 K
b1111 %"
b1100101100 (
b1100101100 J
b1100101100 $"
b0 D
b0 U
b0 [
b10 <
b10 ]
b10 `
b1111 6
b1111 ^
b0 5
b0 Q
b0 V
b1100101100 ?
b1100101100 o
b11100 9
b11100 P
b111111010000 :
b111111010000 O
b10 Y
b100011 W
b10 S
b11100 k
b1 m
b11100 ;
b11100 b
b11100 f
b111111010000 @
b111111010000 n
b1010101100 E
b1010101100 i
b100010010111000100011 !
b100010010111000100011 =
b100010010111000100011 T
b100010010111000100011 X
b100010010111000100011 a
b100010010111000100011 r
b1010101100 F
b1010101100 h
b1011000100 g
b1010101000 "
b1010101000 L
b1010101000 c
b1010101000 q
b1100 1
1/
#225000
0/
#230000
b111111101000 ,
b111111101000 {
b111111101000 ("
b111111101000 G
b11101000 H
b111111101000 N
b111111101000 j
b111111101000 M
b111111101000 8
b111111101000 .
b111111101000 I
b111111101000 !"
b1000000000000 &
b1000000000000 z
b1000000000000 *"
b111111101000 C
b111111101000 R
b111111101000 d
b1000000000000 (
b1000000000000 J
b1000000000000 $"
b1000000000000 ?
b1000000000000 o
b11000 9
b11000 P
b11000 k
b1000 m
b11000 ;
b11000 b
b11000 f
b1010110000 E
b1010110000 i
b100000010010110000100011 !
b100000010010110000100011 =
b100000010010110000100011 T
b100000010010110000100011 X
b100000010010110000100011 a
b100000010010110000100011 r
b1010110000 F
b1010110000 h
b1011000100 g
b1010101100 "
b1010101100 L
b1010101100 c
b1010101100 q
b1101 1
1/
#235000
0/
#240000
b111111100100 ,
b111111100100 {
b111111100100 ("
b111111100100 G
b11100100 H
b111111100100 N
b111111100100 j
b111111100100 M
b111111100100 8
b111111100100 .
b111111100100 I
b111111100100 !"
b0 &
b0 z
b0 *"
b111111100100 C
b111111100100 R
b111111100100 d
b0 (
b0 J
b0 $"
b0 ?
b0 o
b10100 9
b10100 P
b10100 k
b1001 m
b10100 ;
b10100 b
b10100 f
b1010110100 E
b1010110100 i
b100100010010101000100011 !
b100100010010101000100011 =
b100100010010101000100011 T
b100100010010101000100011 X
b100100010010101000100011 a
b100100010010101000100011 r
b1010110100 F
b1010110100 h
b1011000100 g
b1010110000 "
b1010110000 L
b1010110000 c
b1010110000 q
b1110 1
1/
#245000
0/
#250000
b111111110000 ,
b111111110000 {
b111111110000 ("
b111111110000 G
b11110000 H
b111111110000 N
b111111110000 j
b111111110000 M
b111111110000 8
b111111110000 .
b111111110000 I
b111111110000 !"
b0 #
b0 y
b0 ,"
b111111110000 C
b111111110000 R
b111111110000 d
13
b0 %
b0 K
b0 %"
b10 D
b10 U
b10 [
b0 <
b0 ]
b0 `
b0 6
b0 ^
b100000 9
b100000 P
b0 Y
b10011 W
b0 S
b1000 k
b0 m
b100000 ;
b100000 b
b100000 f
b1010111000 E
b1010111000 i
b10000000010000010000010011 !
b10000000010000010000010011 =
b10000000010000010000010011 T
b10000000010000010000010011 X
b10000000010000010000010011 a
b10000000010000010000010011 r
b1010111000 F
b1010111000 h
b1011010100 g
b1010110100 "
b1010110100 L
b1010110100 c
b1010110100 q
b1111 1
1/
#255000
0/
#260000
b111111011100 ,
b111111011100 {
b111111011100 ("
b111111011100 G
b11011100 H
b111111011100 N
b111111011100 j
b111111011100 M
b111111011100 8
b111111011100 .
b111111011100 I
b111111011100 !"
b1111 #
b1111 y
b1111 ,"
b110 &
b110 z
b110 *"
02
b111111011100 C
b111111011100 R
b111111011100 d
03
b10 B
b10 Z
b1111 %
b1111 K
b1111 %"
b111111110000 :
b111111110000 O
b110 (
b110 J
b110 $"
b0 D
b0 U
b0 [
b10 <
b10 ]
b10 `
b1111 6
b1111 ^
b111111110000 @
b111111110000 n
b110 ?
b110 o
b11111111111111111111111111101100 9
b11111111111111111111111111101100 P
b10 Y
b100011 W
b10 S
b1100 k
b1010 m
b1000 l
b0 5
b0 Q
b0 V
b11111111111111111111111111101100 ;
b11111111111111111111111111101100 b
b11111111111111111111111111101100 f
b1010111100 E
b1010111100 i
b11111110101001000010011000100011 !
b11111110101001000010011000100011 =
b11111110101001000010011000100011 T
b11111110101001000010011000100011 X
b11111110101001000010011000100011 a
b11111110101001000010011000100011 r
b1010111100 F
b1010111100 h
b1010100100 g
b1010111000 "
b1010111000 L
b1010111000 c
b1010111000 q
b10000 1
1/
#265000
0/
#270000
b0 #
b0 y
b0 ,"
b0 &
b0 z
b0 *"
b111111011100 C
b111111011100 R
b111111011100 d
13
bx G
bx H
bx N
bx j
bx M
b0 %
b0 K
b0 %"
b0 (
b0 J
b0 $"
bx 8
b0 <
b0 ]
b0 `
b0 6
b0 ^
b0 ?
b0 o
b11111111111111111111111111101100 9
b11111111111111111111111111101100 P
17
b11 W
b1110 k
b1100 m
b11111111111111111111111111101100 ;
b11111111111111111111111111101100 b
b11111111111111111111111111101100 f
b1011000000 E
b1011000000 i
b11111110110001000010011100000011 !
b11111110110001000010011100000011 =
b11111110110001000010011100000011 T
b11111110110001000010011100000011 X
b11111110110001000010011100000011 a
b11111110110001000010011100000011 r
b1011000000 F
b1011000000 h
b1010101000 g
b1010111100 "
b1010111100 L
b1010111100 c
b1010111100 q
b10001 1
1/
#275000
0/
#280000
b10 ,
b10 {
b10 ("
b10 .
b10 I
b10 !"
b111111010000 &
b111111010000 z
b111111010000 *"
b10 C
b10 R
b10 d
b0 G
b0 H
b10 N
b10 j
b10 M
b0 :
b0 O
b111111010000 (
b111111010000 J
b111111010000 $"
b10 8
b10 D
b10 U
b10 [
b0 @
b0 n
b111111010000 ?
b111111010000 o
b10 9
b10 P
b0 Y
07
b10011 W
b0 S
b1111 k
b10 m
b0 l
b10 ;
b10 b
b10 f
b1011000100 E
b1011000100 i
b1000000000011110010011 !
b1000000000011110010011 =
b1000000000011110010011 T
b1000000000011110010011 X
b1000000000011110010011 a
b1000000000011110010011 r
b1011000100 F
b1011000100 h
b1011000010 g
b1011000000 "
b1011000000 L
b1011000000 c
b1011000000 q
b10010 1
1/
#285000
0/
#290000
b0x ,
b0x {
b0x ("
bx G
bx H
b0x N
b0x j
b0x M
b0x 8
b0x .
b0x I
b0x !"
x2
bx &
bx z
bx *"
b0x C
b0x R
b0x d
03
b0 B
b0 Z
b10 5
b10 Q
b10 V
b10 :
b10 O
bx (
bx J
bx $"
b100 <
b100 ]
b100 `
b1 A
b1 \
b1 e
b10 @
b10 n
bx ?
bx o
bx 9
bx P
b100 Y
b1 D
b1 U
b1 [
b1100011 W
b100 S
b1100 k
b1110 m
b1111 l
b1100 ;
b1100 b
b1100 f
b1011001000 E
b1011001000 i
b111001111100011001100011 !
b111001111100011001100011 =
b111001111100011001100011 T
b111001111100011001100011 X
b111001111100011001100011 a
b111001111100011001100011 r
b1011001000 F
b1011001000 h
b1011010000 g
b1011000100 "
b1011000100 L
b1011000100 c
b1011000100 q
b10011 1
1/
#295000
0/
#300000
b1 ,
b1 {
b1 ("
b0 G
b0 H
b1 N
b1 j
b1 M
b1 8
b1 .
b1 I
b1 !"
b1100101100 &
b1100101100 z
b1100101100 *"
02
b1 C
b1 R
b1 d
13
b10 B
b10 Z
b0 :
b0 O
b1 9
b1 P
b1100101100 (
b1100101100 J
b1100101100 $"
b0 <
b0 ]
b0 `
b0 A
b0 \
b0 e
b0 5
b0 Q
b0 V
b0 @
b0 n
b1100101100 ?
b1100101100 o
b0 Y
b10 D
b10 U
b10 [
b10011 W
b0 S
b1111 k
b1 m
b0 l
b1 ;
b1 b
b1 f
b1011001100 E
b1011001100 i
b100000000011110010011 !
b100000000011110010011 =
b100000000011110010011 T
b100000000011110010011 X
b100000000011110010011 a
b100000000011110010011 r
b1011001100 F
b1011001100 h
b1011001001 g
b1011001000 "
b1011001000 L
b1011001000 c
b1011001000 q
b10100 1
1/
#305000
0/
#310000
b0 ,
b0 {
b0 ("
b0 M
b0 8
b0 .
b0 I
b0 !"
12
b0 &
b0 z
b0 *"
b0 C
b0 R
b0 d
b0 B
b0 Z
b1011010000 N
b1011010000 j
b0 (
b0 J
b0 $"
b0 D
b0 U
b0 [
b11 <
b11 ]
b11 `
b10 4
b10 _
b11 A
b11 \
b11 e
b0 ?
b0 o
b0 9
b0 P
b1101111 W
b0 k
b10000 m
b110000 ;
b110000 b
b110000 f
b1011111100 E
b1011111100 i
b11000000000000000001101111 !
b11000000000000000001101111 =
b11000000000000000001101111 T
b11000000000000000001101111 X
b11000000000000000001101111 a
b11000000000000000001101111 r
b1011010000 F
b1011010000 h
b1011111100 g
b1011001100 "
b1011001100 L
b1011001100 c
b1011001100 q
b10101 1
1/
#315000
0/
#320000
b1 ,
b1 {
b1 ("
b1 M
b1 8
b1 .
b1 I
b1 !"
02
b1 C
b1 R
b1 d
13
b10 B
b10 Z
b1 :
b1 O
b10 D
b10 U
b10 [
b0 4
b0 _
b0 <
b0 ]
b0 `
b0 A
b0 \
b0 e
b1 @
b1 n
b10011 W
b1010 k
b0 m
b1111 l
b0 ;
b0 b
b0 f
b1 N
b1 j
b1100000000 E
b1100000000 i
b1111000010100010011 !
b1111000010100010011 =
b1111000010100010011 T
b1111000010100010011 X
b1111000010100010011 a
b1111000010100010011 r
b1100000000 F
b1100000000 h
b1011111100 g
b1011111100 "
b1011111100 L
b1011111100 c
b1011111100 q
b10110 1
1/
#325000
0/
#330000
b111111101100 ,
b111111101100 {
b111111101100 ("
b111111101100 .
b111111101100 I
b111111101100 !"
b111111101100 C
b111111101100 R
b111111101100 d
13
bx G
bx H
bx N
bx j
b10 B
b10 Z
bx M
b111111010000 :
b111111010000 O
bx 8
b0 D
b0 U
b0 [
b0 5
b0 Q
b0 V
b111111010000 @
b111111010000 n
b11100 9
b11100 P
b10 Y
17
b11 W
b10 S
b1 k
b11100 m
b10 l
b11100 ;
b11100 b
b11100 f
b1100000100 E
b1100000100 i
b1110000010010000010000011 !
b1110000010010000010000011 =
b1110000010010000010000011 T
b1110000010010000010000011 X
b1110000010010000010000011 a
b1110000010010000010000011 r
b1100000100 F
b1100000100 h
b1100011100 g
b1100000000 "
b1100000000 L
b1100000000 c
b1100000000 q
b10111 1
1/
#335000
0/
#340000
b111111101000 ,
b111111101000 {
b111111101000 ("
b111111101000 .
b111111101000 I
b111111101000 !"
b111111101000 C
b111111101000 R
b111111101000 d
b11000 9
b11000 P
b1000 k
b11000 m
b11000 ;
b11000 b
b11000 f
b1100001000 E
b1100001000 i
b1100000010010010000000011 !
b1100000010010010000000011 =
b1100000010010010000000011 T
b1100000010010010000000011 X
b1100000010010010000000011 a
b1100000010010010000000011 r
b1100001000 F
b1100001000 h
b1100011100 g
b1100000100 "
b1100000100 L
b1100000100 c
b1100000100 q
b11000 1
1/
#345000
0/
#350000
b111111100100 ,
b111111100100 {
b111111100100 ("
b111111100100 .
b111111100100 I
b111111100100 !"
b111111100100 C
b111111100100 R
b111111100100 d
b10100 9
b10100 P
b1001 k
b10100 m
b10100 ;
b10100 b
b10100 f
b1100001100 E
b1100001100 i
b1010000010010010010000011 !
b1010000010010010010000011 =
b1010000010010010010000011 T
b1010000010010010010000011 X
b1010000010010010010000011 a
b1010000010010010010000011 r
b1100001100 F
b1100001100 h
b1100011100 g
b1100001000 "
b1100001000 L
b1100001000 c
b1100001000 q
b11001 1
1/
#355000
0/
#360000
b111111110000 ,
b111111110000 {
b111111110000 ("
b111111110000 .
b111111110000 I
b111111110000 !"
b111111110000 C
b111111110000 R
b111111110000 d
b111111110000 G
b11110000 H
b111111110000 N
b111111110000 j
b111111110000 M
b111111110000 8
b10 D
b10 U
b10 [
b100000 9
b100000 P
b0 Y
07
b10011 W
b0 S
b10 k
b0 m
b100000 ;
b100000 b
b100000 f
b1100010000 E
b1100010000 i
b10000000010000000100010011 !
b10000000010000000100010011 =
b10000000010000000100010011 T
b10000000010000000100010011 X
b10000000010000000100010011 a
b10000000010000000100010011 r
b1100010000 F
b1100010000 h
b1100101100 g
b1100001100 "
b1100001100 L
b1100001100 c
b1100001100 q
b11010 1
1/
#365000
0/
